<?xml version="1.0" ?>
<robot name="turtlebot_full" xmlns:xacro="http://ros.org/wiki/xacro">

  <xacro:include filename="$(find robot)/urdf/turtlebot_mod.urdf.xacro"/>
  <xacro:include filename="$(find realsense2_description)/urdf/_d435.urdf.xacro"/>

  <link name="camera_mount"/>

  <link name="rs_base_link"/>

  <joint name="camera_mount_joint" type="fixed">
    <parent link="base_link"/>
    <child link="camera_mount"/>
    <origin xyz="0.0 0.0 0.010" rpy="0 0 0"/>
  </joint>
  <joint name="rs_cam_joint" type="fixed">
    <parent link="base_link"/>
    <child link="rs_base_link"/>
    <origin xyz="0.0 0.0 0.010" rpy="0 0 0"/>
  </joint>


  <!-- <sensor_d435 parent="camera_mount"> 
    <origin xyz="0.1 0 0.15" rpy="0 0 0" />
  </sensor_d435> -->

</robot>
